{
  "coc.preferences.formatOnSaveFiletypes": [
    "typescript",
    "typescriptreact",
    "json",
    "javascript",
    "html",
    "scss",
    "css",
    "java",
    "sh",
    "bash",
    "c",
    "h",
    "javascriptreact",
    "typescript.tsx",
    "toml"
  ],
  "coc.preferences.diagnostic.virtualText": true,
  "clangd.path": "/home/spookyuser/.config/coc/extensions/coc-clangd-data/install/12.0.0/clangd_12.0.0/bin/clangd"
}
